Change Component Footprint: Designator=R1 Old Footprint=AXIAL-0.3 New Footprint=0603
Change Component Footprint: Designator=R2 Old Footprint=AXIAL-0.3 New Footprint=0603
Added Member To Class: ClassName=Sheet1 Member=Component R1 Res1
Added Member To Class: ClassName=Sheet1 Member=Component R2 Res1
Added Member To Class: ClassName=Sheet1 Member=Component R4 SMD_RES
Added Member To Class: ClassName=Sheet1 Member=Component R5 SMD_RES
