Removed Pin From Net: NetName=NetR10_2 Pin=U5-1
Removed Pin From Net: NetName=5V Pin=U5-2
Removed Pin From Net: NetName=LED_CS Pin=U5-4
Removed Pin From Net: NetName=NetD2_1 Pin=U5-5
Added Component: Designator=U6(SOT23_5)
Added Pin To Net: NetName=NetC16_1 Pin=U5-2
Added Pin To Net: NetName=NetC16_1 Pin=U5-4
Added Pin To Net: NetName=NetC16_1 Pin=U5-5
Added Pin To Net: NetName=NetR10_2 Pin=U5-1
Added Pin To Net: NetName=5V Pin=U5-2
Added Pin To Net: NetName=LED_CS Pin=U5-4
Added Pin To Net: NetName=NetD2_1 Pin=U5-5
Added Member To Class: ClassName=Sheet1 Member=Component U6 NCP1402SN50T1
